…
> Documentation is one of the most important aspects of a good package. Without it, users won’t know how to use your package. Documentation is also useful for future-you (so you remember what your functions were supposed to do), and for developers extending your package.

-- http://r-pkgs.had.co.nz/man.html

Documentation of forestr has two large problems: the arguments of many function are undocumented, and many arguments that mean the same accross multiple functions are documented in multiple places. Those problems can in part be solved by re-using arguments shared across multiple functions, when the arguments are documented in one but not all of those functions. This also reduces duplication, which makes easier to maintain documentation (see [Inheriting parameters from other functions](http://r-pkgs.had.co.nz/man.html), by Hadley Wickham).

### Where to start from?

* (Comes after item below), identified what arguments should be documented with highest priority, to maximize the positive impact by unit of effort. I wrote functions to identify what arguments are most commonly used in forestr functions, but less commonly documented.

Example 1: The list below shows that the argument `x` is used 130 times (by functions including `border.distance`, `cartesian.to.polar`, etc.), but `x` is only documented 8 times.

```R
> args_count_formals_man()
# A tibble: 1,758 x 4
   params                 fun frml_n man_n
    <chr>               <chr>  <int> <int>
 1      x     border.distance    130     8
 2      x  cartesian.to.polar    130     8
 3      x coldata.to.imagemat    130     8
 4      x         fullellipse    130     8
 5      x      getquadratname    130     8
 6      x     graphFilledBand    130     8
 7      x        plot_wavelet    130     8
 8      x            tojulian    130     8
 9      x      abundmodel.fit    130    NA
10      x         addBinParam    130    NA
# ... with 1,748 more rows
```

Note: unfortunately, `x` is used with very different meaning in different functions, so it is not a great candidate to improve documentation fast. Other arguments are  better candidates.

Example 2: The argument `plotdim` is a good candidate to improve documentation fast. It is needed by 37 functions but is documented in only 29. Its meaning is very consistent accross functions, so it can be documented in one place via \@templates and then re-used from the functions that need it (they all point to the same tamplate).

```R
args_count_formals_man() %>% 
  filter(params == "plotdim") 
# A tibble: 37 x 4
    params               fun frml_n man_n
     <chr>             <chr>  <int> <int>
 1 plotdim  abundanceperquad     37    29
 2 plotdim  allquadratslopes     37    29
 3 plotdim            Annuli     37    29
 4 plotdim   border.distance     37    29
 5 plotdim      CalcRingArea     37    29
 6 plotdim  complete.plotmap     37    29
 7 plotdim     coverage.diag     37    29
 8 plotdim          distance     37    29
 9 plotdim   findborderquads     37    29
10 plotdim findneighborabund     37    29
# ... with 27 more rows
```
…
