Exploratory Data Analysis
…
Which values are rare? Why? Does that match your expectations?

Can you see any unusual patterns? What might explain them?

– R for Data Science.

The later two plots give a good estimate of what tree diameters are most common. You can compute the same count manually, by cutting the variable dbh with ggplot2::cut_width() and then counting the unique pieces with dplyr::count():

small_cut_width <- small_dbh %>% 
  dplyr::mutate(dbh_cut = ggplot2::cut_width(dbh, width = useful_barwidth))

small_cut_width %>% 
  dplyr::count(dbh_cut, sort = TRUE)
#> # A tibble: 18 x 2
#>     dbh_cut      n
#>      <fctr>  <int>
#> 1   (15,45] 106249
#> 2  [-15,15]  46024
#> 3   (45,75]  25191
#> 4  (75,105]  10867
#> 5 (105,135]   5998
#> 6 (135,165]   3173
#> # ... with 12 more rows
…
coord_cartesian() also has an xlim() argument for when you need to zoom into the x-axis. ggplot2 also has xlim() and ylim() functions that work slightly differently: they throw away the data outside the limits.

This allows us to see that dbh values over 2000 are unusual. We pluck them out with dplyr::filter() and select a subset of informative variables:

unusual_trees <- bci12full7 %>% 
  filter(dbh > 2000) %>% 
  dplyr::select(treeID, ExactDate, status, gx, gy, dbh) %>%
  dplyr::arrange(dbh)

unusual_trees
#> # A tibble: 10 x 6
#>   treeID  ExactDate status    gx    gy   dbh
#>    <int>      <chr>  <chr> <dbl> <dbl> <dbl>
#> 1    897 2011-03-28      A   884 197.7  2080
#> 2   5169 2010-08-07      A   389 166.9  2085
#> 3   3634 2010-08-23      A   577  22.1  2103
#> 4   3608 2010-08-23      A   589  60.3  2172
#> 5   2564 2010-08-30      A   716  27.2  2180
#> 6   1160 2011-03-28      A   861  39.9  2200
#> # ... with 4 more rows
…
–?dplyr::case_when

# Confirm no rows have been removed,
nrow(bci12full7)
#> [1] 394658
nrow(with_unusual_made_NA)
#> [1] 394658

# but dbh of unusual trees is NA
unusual_only <- with_unusual_made_NA %>% 
  filter(are_unusual) %>% 
  select(dbh, treeID)
unusual_only
#> # A tibble: 10 x 2
#>     dbh treeID
#>   <dbl>  <int>
#> 1    NA    897
#> 2    NA   1160
#> 3    NA   1903
#> 4    NA   2564
#> 5    NA   2935
#> 6    NA   3608
#> # ... with 4 more rows
…
Another approach is to compute the count with dplyr:

few_spp_n <- data_few_sp %>% 
  count(sp, DFstatus)

few_spp_n
#> # A tibble: 13 x 3
#>       sp  DFstatus     n
#>   <fctr>     <chr> <int>
#> 1 hybapr     alive 30130
#> 2 hybapr      dead 31409
#> 3 hybapr no_record     8
#> 4 swars1     alive  3189
#> 5 swars1      dead   382
#> 6 beilpe     alive  2252
#> # ... with 7 more rows
…
