Testing mvpart
…
Overview data

2 files attached:

KC3spp20  is the species matrix of abundance in each of 600 quadrats

# See a few columns from the beginning, middle and end
KC3spp20 %>% dplyr::select(1:2, 250:252, 583:585)
#> # A tibble: 600 x 8
#>    ACMEAC ACTEJA GARCPA GARCRO GARCS1 ZIZYAN ZIZYCA ZIZYXX
#>     <int>  <int>  <int>  <int>  <int>  <int>  <int>  <int>
#>  1      0      2      0      0      0      0      0      0
#>  2      0      2      0      0      0      0      0      0
#>  3      0      0      0      0      0      0      0      0
#>  4      0      0      0      0      0      0      0      0
#>  5      0      0      0      0      1      0      0      0
#>  6      0      0      0      0      0      0      0      0
#>  7      0      0      0      0      0      0      0      0
#>  8      0      3      0      0      0      0      0      0
#>  9      0      0      0      0      0      0      0      0
#> 10      0      0      0      0      0      0      0      0
#> # ... with 590 more rows
…
# Summary
tibble::tibble(quadrat = 1:600, where = mvpart_result$where) %>% count(where)
#> # A tibble: 8 x 2
#>   where     n
#>   <int> <int>
#> 1     4    18
#> 2     5    29
#> 3     7    69
#> 4     8     3
#> 5    11    68
#> 6    12    86
#> 7    14   204
#> 8    15   123
(groupings <- as_tibble(mvpart_result$where))
#> # A tibble: 600 x 1
#>    value
#>    <int>
#>  1    14
#>  2    14
#>  3    11
#>  4    11
#>  5    11
#>  6    11
#>  7    11
#>  8    11
#>  9    11
#> 10    11
#> # ... with 590 more rows
…
