Exploratory Data Analysis • forestr
…
If you want to handle the data faster and print it nicer, convert dataframes to tibbles:

bci12full7 <- tibble::as_tibble(bci12full7)  
bci12full7
#> # A tibble: 394,658 x 20
#>    treeID stemID    tag StemTag     sp quadrat    gx    gy MeasureID
#>  *  <int>  <int>  <chr>   <chr>  <chr>   <chr> <dbl> <dbl>     <int>
#>  1      1     NA -05599    <NA> swars1    4007 800.2 152.2        NA
#>  2      2     NA -22851    <NA> hybapr    0718 151.5 378.8        NA
#>  3      3     NA -24362    <NA> aegipa    0417  95.2 357.5        NA
#>  4      4     NA -26589    <NA> beilpe    0007  11.7 151.1        NA
#>  5      5     NA -26590    <NA> faraoc    0004   7.7  96.2        NA
#>  6      6     NA -26703    <NA> hybapr    0210  50.1 215.4        NA
#>  7      7     NA -26746    <NA> tet2pa    0218  58.5 364.7        NA
#>  8      8     NA -27125    <NA> des2pa    0613 139.8 267.1        NA
#>  9      9     NA -27298    <NA> crotbi    0704 157.8  86.4        NA
#> 10     10     NA -27784    <NA> alsebl            NA    NA        NA
#> # ... with 394,648 more rows, and 11 more variables: CensusID <int>,
#> #   dbh <dbl>, pom <chr>, hom <dbl>, ExactDate <chr>, DFstatus <chr>,
#> #   codes <chr>, nostems <dbl>, date <dbl>, status <chr>, agb <dbl>
…
library(lubridate)
#> 
#> Attaching package: 'lubridate'
#> The following object is masked from 'package:base':
#> 
#>     date

# "Duration" is a useful intermediate; learn more with ?lubridate::duration
# %/%: integere diviison removes useless and annoying fraction of seconds.
bci12full7 <- mutate(bci12full7, duration = dseconds((date * 24 * 60 * 60) %/% 1))
bci12full7 <- mutate(bci12full7, datetime = as_datetime(duration, origin = "1960-01-01"))
bci12full7 %>% 
  select(date, datetime)
#> # A tibble: 394,658 x 2
#>        date            datetime
#>       <dbl>              <dttm>
#>  1 18465.07 2010-07-22 01:34:25
#>  2 18329.00 2010-03-08 00:00:00
#>  3 18316.05 2010-02-23 01:05:13
#>  4 18295.61 2010-02-02 14:42:34
#>  5 18288.57 2010-01-26 13:45:13
#>  6 18300.45 2010-02-07 10:48:56
#>  7 18319.00 2010-02-26 00:00:00
#>  8 18305.93 2010-02-12 22:16:49
#>  9 18292.02 2010-01-30 00:28:47
#> 10       NA                  NA
#> # ... with 394,648 more rows
…
