Growth variation through time • ctfs
…
First, let’s table the growth rate of every tree in every census interval. To calculate growth rates for individual trees and table them in the format lmer understands, we use ctfs::individual_grow.table(). individual_grow.table() collects results from several other functions.

# See default arguments, definition of output variables and other details with
# ?individual_grow.table

# Example choosing censuses 1-7
census17_chr <- paste0("bci12full", 1:7)
census17_list <- lapply(census17_chr, get)
grate <- individual_grow.table(
  census17_list, 
  mindbh = 400, maxdbh = 10000  # e.g. with trees of relatively large diameter
)
# Overview
(grate <- as_tibble(grate))
#> # A tibble: 8,594 × 14
#>    treeID        tag    gx    gy    species  dbh1  dbh2      LnSize
#> *   <int> <S3: AsIs> <dbl> <dbl> <S3: AsIs> <dbl> <dbl>       <dbl>
#> 1      39     000022 989.1 421.3     anacex  1761  1855  1.12953376
#> 2      59     000044 991.8 342.5     loncla   655   670  0.14053188
#> 3     102     000087 985.6 226.5     anacex   426   533 -0.28966401
#> 4     103     000088 983.7 229.4     tri2tu   553   587 -0.02874535
#> 5     104     000089 988.9 232.8     alsebl   642   661  0.12048495
#> 6     117     000102 994.2 185.3     huracr   732   837  0.25167716
#> 7     126     000111 998.0 167.2     loncla   453   478 -0.22821123
#> 8     129     000114 987.0 151.6     huracr   481   543 -0.16823608
#> 9     131     000116 981.7 141.8     tab2ar   499   525 -0.13149726
#> 10    134     000120 987.4 129.4     cavapl  1413  1384  0.90936703
#> # ... with 8,584 more rows, and 6 more variables: incgr <dbl>,
#> #   LnGrowth <dbl>, CRGrowth <dbl>, time <dbl>, census <int>,
#> #   censusfact <fctr>
…
