Print all rows of a tibble or tbl_df. — print_all • ctfs
…
    Arguments

      x
      A tibble or tbl_df.

    Value

    All rows of a tibble.

    Examples

x <- tibble::tibble(long = 1:30)
x  # prints 10 rows
#> # A tibble: 30 x 1
#>     long
#>    <int>
#>  1     1
#>  2     2
#>  3     3
#>  4     4
#>  5     5
#>  6     6
#>  7     7
#>  8     8
#>  9     9
#> 10    10
#> # ... with 20 more rows
…
